…
library(readr)   ## for reading in data
library(dplyr)   ## for manipulating dataframes
library(tidyr)   ## for conversion from wide to long format
## alternatively use library(tidyverse) which contains dplyr, readr, tidyr and more
library(janitor) ## for data cleaning tools
library(psych)   ## for some useful data exploration graphs
library(summarytools) ## for some summary statistics and tables

Now I’m going to read in the data from the working directory, this data represents a simulated field survey across three countries of soil properties. I’m using read_csv here from the readr package to read in the csv file, its behaviour is slightly different than read.csv in base R. For instance character strings are kept as characters, not converted to factors which many people dislike about base R (I’ve found the vast majority of my data that comes as characters is categorical so it’s not such an issue for me). It can also deal better with non-standard column names, which is why I’m using it here to show one of the cool things janitor does. The output is a tibble which displays different behaviour when printed to console Later on we’ll read in a file using read.csv and you’ll see some differences

CS <- read_csv("CS_fake.csv")
CS

## # A tibble: 1,000 x 7
##    `Plot ID`  Country County    `Carbon (%)` `Nitrogen (%)`    ph Habitat
##    <chr>      <chr>   <chr>            <dbl>          <dbl> <dbl>   <int>
##  1 GCEXWQRYRK VAL     ERROLD            70.2           7.70  2.85       8
##  2 JZCMAHEPQY RET     BOLTHAVEN         14.5           1.53  6.04       7
##  3 DTVGQBSJIA VAL     TREVALE           28.6           5.93  5.00       4
##  4 REJAJMVEIE HAR     GREENVALE         24.0           1.64  5.43       2
##  5 FMWEYMKIGS VAL     EVENDIM           14.9           2.84  6.85       8
##  6 KYULXCMWOJ VAL     EVENDIM           57.8           6.89  3.17       6
##  7 CPKKYGMVFP RET     PETRAS            33.3           4.53  4.55       7
##  8 TAYSUFTDEF RET     PETRAS            56.0           8.01  3.05       5
##  9 EAYSCYXEST VAL     ERROLD            12.3           5.18  5.97       6
## 10 NZONLIZVZK VAL     EVENDIM           74.5          10.0   2.54       9
## # ... with 990 more rows
…
##   1   2   3   4   5   6   7   8   9  10 
##  95 107  95 109 106  99 106  99 105  79

# And back again!
CS$habitat <- as.numeric(as.character(CS$habitat))

create new variable based on current variable numeric to factor

CS$C_CAT <- cut(CS$carbon_percent, c(0,10,30,50,100),
                labels=c("Mineral","Humus-mineral", "Organo-mineral","Organic"))
CS

## # A tibble: 1,000 x 8
##    plot_id country county carbon_percent nitrogen_percent    ph habitat
##    <chr>   <chr>   <chr>           <dbl>            <dbl> <dbl>   <dbl>
##  1 GCEXWQ~ VAL     ERROLD           70.2             7.70  2.85       8
##  2 JZCMAH~ RET     BOLTH~           14.5             1.53  6.04       7
##  3 DTVGQB~ VAL     TREVA~           28.6             5.93  5.00       4
##  4 REJAJM~ HAR     GREEN~           24.0             1.64  5.43       2
##  5 FMWEYM~ VAL     EVEND~           14.9             2.84  6.85       8
##  6 KYULXC~ VAL     EVEND~           57.8             6.89  3.17       6
##  7 CPKKYG~ RET     PETRAS           33.3             4.53  4.55       7
##  8 TAYSUF~ RET     PETRAS           56.0             8.01  3.05       5
##  9 EAYSCY~ VAL     ERROLD           12.3             5.18  5.97       6
## 10 NZONLI~ VAL     EVEND~           74.5            10.0   2.54       9
## # ... with 990 more rows, and 1 more variable: C_CAT <fct>
…
