…
First of all we need to load up the packages we want to use today

library(readr)   ## for reading in data
library(dplyr)   ## for data manipulation
library(janitor) ## for data cleaning tools
library(psych)   ## for some useful data exploration graphs
library(summarytools) ## for some summary statistics and tables

We’re using the same data as the data manipulation tutorial to show a variety of different summary statistics and tables

CS <- read_csv("CS_fake.csv")
CS <- clean_names(CS)
CS

## # A tibble: 1,000 x 7
##    plot_id   country county   carbon_percent nitrogen_percent    ph habitat
##    <chr>     <chr>   <chr>             <dbl>            <dbl> <dbl>   <dbl>
##  1 GCEXWQRY~ VAL     ERROLD             70.2             7.70  2.85       8
##  2 JZCMAHEP~ RET     BOLTHAV~           14.5             1.53  6.04       7
##  3 DTVGQBSJ~ VAL     TREVALE            28.6             5.93  5.00       4
##  4 REJAJMVE~ HAR     GREENVA~           24.0             1.64  5.43       2
##  5 FMWEYMKI~ VAL     EVENDIM            14.9             2.84  6.85       8
##  6 KYULXCMW~ VAL     EVENDIM            57.8             6.89  3.17       6
##  7 CPKKYGMV~ RET     PETRAS             33.3             4.53  4.55       7
##  8 TAYSUFTD~ RET     PETRAS             56.0             8.01  3.05       5
##  9 EAYSCYXE~ VAL     ERROLD             12.3             5.18  5.97       6
## 10 NZONLIZV~ VAL     EVENDIM            74.5            10.0   2.54       9
## # ... with 990 more rows
…
